Homework 1
…
sum(is.na(d1$xad))

[1] 13

In the finance literature, a common (but incorrect) practice is to assume that the missing advertising is 0. We will use this adjustment to xad and create a new variable adv and save it in a new object d2.

The first six values of d2 when xad is NA are as follows:

d2 = (d1 %>% 
           mutate(adv = ifelse(is.na(d1$xad), 0, 0))
               )

select(.data=d2,conm,datadate,xad,adv)

# A tibble: 93 × 4
   conm      datadate     xad   adv
   <chr>     <date>     <dbl> <dbl>
 1 APPLE INC 2010-09-30   691     0
 2 APPLE INC 2011-09-30   933     0
 3 APPLE INC 2012-09-30  1000     0
 4 APPLE INC 2013-09-30  1100     0
 5 APPLE INC 2014-09-30  1200     0
 6 APPLE INC 2015-09-30  1800     0
 7 APPLE INC 2016-09-30    NA     0
 8 APPLE INC 2017-09-30    NA     0
 9 APPLE INC 2018-09-30    NA     0
10 APPLE INC 2019-09-30    NA     0
# ℹ 83 more rows
…
Warning: Returning more (or less) than 1 row per `summarise()` group was deprecated in
dplyr 1.1.0.
ℹ Please use `reframe()` instead.
ℹ When switching from `summarise()` to `reframe()`, remember that `reframe()`
  always returns an ungrouped data frame and adjust accordingly.

# A tibble: 93 × 1
   conm     
   <chr>    
 1 APPLE INC
 2 APPLE INC
 3 APPLE INC
 4 APPLE INC
 5 APPLE INC
 6 APPLE INC
 7 APPLE INC
 8 APPLE INC
 9 APPLE INC
10 APPLE INC
# ℹ 83 more rows
…
